{
    "lintOptions": {
        "typeCheck": true
    },
    "defaultSeverity": "error",
    "extends": [
        "tslint:recommended"
    ],
    "jsRules": {},
    "rules": {
        "no-unreachable": true
    },
    "rulesDirectory": []
}